…
Now move to the last part of the problem. Make a scatterplot for male,
white non-hispanic children born in 2016, showing the number of children
with a name (y axis) against the rank in popularity of that name (x
axis).

create a subset of data for plotting

``` r
white_nonhis_2016 = pop_names[pop_names$year_of_birth == 2016, ] %>% 
  filter(gender == "male", ethnicity == "white_non_hisp") %>% 
  select(childs_first_name, count, rank)
white_nonhis_2016
```

    ## # A tibble: 364 × 3
    ##    childs_first_name count  rank
    ##    <chr>             <dbl> <dbl>
    ##  1 joseph              261     1
    ##  2 michael             260     2
    ##  3 david               255     3
    ##  4 moshe               239     4
    ##  5 jacob               236     5
    ##  6 james               231     6
    ##  7 benjamin            219     7
    ##  8 alexander           211     8
    ##  9 daniel              196     9
    ## 10 henry               196     9
    ## # … with 354 more rows
…
